{
    "faces":[43,23,24,66,67,0,0,1,2,3,0,1,2,1,43,70,68,2,12,0,4,5,6,7,3,3,3,3,43,6,72,13,14,0,8,9,10,11,4,3,3,5,43,71,70,12,15,0,12,4,7,13,3,3,3,3,43,72,71,15,13,0,9,12,13,10,3,3,3,3,43,73,64,16,75,0,14,15,16,17,6,6,6,6,43,64,65,17,16,0,15,18,19,16,6,6,6,6,43,65,69,18,17,0,18,20,21,19,6,6,6,6,43,69,7,19,18,0,20,22,23,21,6,7,8,6,43,74,1,21,20,0,24,25,26,27,1,2,9,10,43,20,21,24,23,0,27,26,1,0,10,9,1,0,43,26,19,7,22,0,28,29,30,31,11,8,7,12,43,21,26,30,28,0,32,33,34,35,9,11,11,2,43,1,19,26,21,0,36,37,33,32,2,8,11,9,43,27,25,6,14,0,38,39,40,41,13,14,4,5,43,23,24,32,33,0,42,43,44,45,0,1,12,15,43,66,24,27,14,0,46,47,48,49,2,1,13,5,43,20,21,28,29,0,27,26,50,51,10,9,2,0,43,26,22,31,30,0,28,31,52,53,11,12,15,11,43,27,25,35,34,0,54,55,43,56,13,14,0,16,43,24,27,34,32,0,57,58,59,60,1,13,16,12,42,5,6,25,0,61,62,63,14,4,14,42,9,10,5,0,77,78,61,14,14,14,42,23,3,9,0,75,76,77,0,14,14,42,29,33,23,0,73,74,75,0,15,0,42,0,20,29,0,71,72,73,14,10,0,42,11,8,0,0,69,70,71,14,14,14,42,22,7,4,0,66,67,68,12,7,14,42,4,11,0,0,68,69,71,14,14,14,42,0,29,23,0,71,73,75,14,0,0,42,23,9,5,0,75,77,61,0,14,14,42,5,25,35,0,61,63,64,14,14,0,42,35,31,22,0,64,65,66,0,15,12,42,22,4,0,0,66,68,71,12,14,14,42,0,23,5,0,71,75,61,14,0,14,42,5,35,22,0,61,64,66,14,0,12,42,5,22,0,0,61,66,71,14,12,14,43,105,87,94,80,1,79,80,81,82,17,17,17,17,43,98,102,82,96,1,83,84,85,86,14,14,14,14,43,93,95,81,79,1,87,88,89,90,18,18,18,18,43,44,88,87,105,1,86,85,80,79,17,17,17,17,43,83,85,76,77,1,91,92,93,94,1,1,1,1,43,99,89,91,101,1,95,96,97,98,18,18,18,18,43,84,78,92,90,1,84,83,93,99,14,14,14,14,43,97,43,38,45,1,100,101,102,82,6,6,6,6,42,45,38,37,1,103,103,103,6,6,14,43,97,45,52,86,1,100,82,104,105,6,6,6,6,43,40,47,46,50,1,100,105,106,107,6,6,6,6,43,51,49,48,100,1,108,109,110,111,3,3,3,3,43,100,48,53,104,1,111,110,112,96,3,3,3,19,43,42,41,103,39,1,113,111,96,114,3,3,3,3,42,39,103,36,1,103,103,103,3,3,14,43,110,117,119,114,0,115,116,117,118,14,14,14,14,43,57,58,112,109,0,119,120,88,121,6,6,6,6,42,111,113,115,0,121,88,122,6,6,6,43,106,116,59,108,0,123,124,103,125,17,17,17,17,43,54,60,107,118,0,126,127,128,129,1,1,1,1,43,56,55,61,63,0,130,131,132,133,3,19,19,3,42,63,61,62,0,133,132,134,3,19,19],
    "name":"Group_001Geometry",
    "metadata":{
        "faces":59,
        "materials":2,
        "version":3,
        "vertices":120,
        "generator":"io_three",
        "type":"Geometry",
        "uvs":1,
        "normals":20
    },
    "materials":[{
        "mapDiffuseRepeat":[8,2],
        "DbgIndex":0,
        "colorEmissive":[0,0,0],
        "DbgName":"Wood",
        "specularCoef":100,
        "wireframe":false,
        "depthWrite":true,
        "visible":true,
        "mapDiffuse":"../textures/woodenFloor.jpg",
        "depthTest":true,
        "DbgColor":15658734,
        "opacity":1,
        "shading":"phong",
        "mapDiffuseAnisotropy":1,
        "transparent":false,
        "mapDiffuseWrap":["RepeatWrapping","RepeatWrapping"],
        "blending":"NormalBlending",
        "colorSpecular":[0,0,0],
        "colorDiffuse":[0.64,0.64,0.64]
    },{
        "mapDiffuseRepeat":[3,3],
        "DbgIndex":1,
        "colorEmissive":[0,0,0],
        "DbgName":"Granite",
        "specularCoef":20,
        "wireframe":false,
        "depthWrite":true,
        "visible":true,
        "mapDiffuse":"../textures/granite.jpg",
        "depthTest":true,
        "DbgColor":15597568,
        "opacity":1,
        "shading":"phong",
        "mapDiffuseAnisotropy":1,
        "transparent":false,
        "mapDiffuseWrap":["RepeatWrapping","RepeatWrapping"],
        "blending":"NormalBlending",
        "colorSpecular":[1,1,1],
        "colorDiffuse":[0.8,0.8,0.8]
    }],
    "vertices":[-3.7356,1.05497,3.48656,-3.7356,1.05497,3.23752,3.7356,1.05497,3.23752,3.7356,1.05497,3.48656,-3.7356,7.4903,3.48656,3.7356,7.4903,3.48657,3.7356,9.07275,3.48657,-3.7356,9.07275,3.48656,-3.7356,4.32537,3.48656,3.7356,4.32537,3.48656,3.7356,5.90782,3.48657,-3.7356,5.90782,3.48656,3.7356,4.32537,3.23752,3.7356,7.4903,3.23753,3.7356,9.07275,3.23753,3.7356,5.90782,3.23753,-3.7356,4.32537,3.23752,-3.7356,5.90782,3.23753,-3.7356,7.4903,3.23753,-3.7356,9.07275,3.23753,-0.05,1.05497,3.48656,-0.05,1.05497,3.23752,-0.05,9.07275,3.48656,0.05,1.05497,3.48656,0.05,1.05497,3.23752,0.05,9.07275,3.48657,-0.05,9.07275,3.23752,0.05,9.07275,3.23752,-0.025,1.05497,3.23752,-0.025,1.05497,3.48656,-0.025,9.07275,3.23752,-0.025,9.07275,3.48656,0.025,1.05497,3.23752,0.025,1.05497,3.48656,0.025,9.07275,3.23752,0.025,9.07275,3.48657,3.7356,9.57797,-3.7356,-3.7356,9.57797,-3.7356,-3.7356,10.2006,-3.7356,3.7356,10.2006,-3.7356,-3.7356,9.57797,-3.61108,3.7356,9.57797,-3.61108,3.7356,10.2006,-3.61108,-3.7356,10.2006,-3.61108,3.7356,9.07989,-3.7356,-3.7356,9.07989,-3.7356,-3.7356,9.07989,3.73561,-3.7356,9.07989,3.48657,3.7356,9.07989,3.48657,3.7356,9.07989,3.73561,-3.7356,9.57797,3.73561,3.7356,9.57797,3.73561,-3.7356,9.07989,3.23753,3.7356,9.07989,3.23753,-3.7356,-0,3.23752,3.7356,-0,3.23752,3.7356,1.05497,3.23752,-3.7356,1.05497,3.23752,-3.7356,9.07275,3.23753,-3.7356,9.07275,-3.7356,-3.7356,0,-3.7356,3.7356,0,-3.7356,3.7356,9.07275,-3.7356,3.7356,9.07275,3.23753,-3.7356,4.32537,3.48656,-3.7356,5.90782,3.48656,3.7356,1.05497,3.23752,3.7356,1.05497,3.48656,3.7356,1.05497,3.48656,-3.7356,7.4903,3.48656,3.7356,4.32537,3.48656,3.7356,5.90782,3.48657,3.7356,7.4903,3.48657,-3.7356,1.05497,3.48656,-3.7356,1.05497,3.48656,-3.7356,1.05497,3.23752,3.7356,9.07989,3.48657,3.7356,9.07989,3.73561,3.7356,9.07989,3.73561,3.7356,10.2006,-3.7356,3.7356,10.2006,-3.7356,3.7356,10.2006,-3.61108,3.7356,10.2006,-3.61108,-3.7356,9.07989,3.73561,-3.7356,9.07989,3.73561,-3.7356,9.07989,3.48657,-3.7356,9.07989,3.48657,-3.7356,9.57797,-3.7356,-3.7356,9.07989,-3.7356,-3.7356,9.57797,3.73561,-3.7356,9.57797,3.73561,3.7356,9.57797,3.73561,3.7356,9.57797,3.73561,-3.7356,10.2006,-3.7356,-3.7356,10.2006,-3.7356,-3.7356,10.2006,-3.61108,-3.7356,10.2006,-3.61108,-3.7356,9.57797,-3.61108,-3.7356,9.57797,-3.61108,-3.7356,9.57797,-3.61108,3.7356,9.57797,-3.61108,3.7356,9.57797,-3.61108,3.7356,9.57797,-3.61108,3.7356,9.07989,-3.7356,3.7356,9.07989,-3.7356,3.7356,9.57797,-3.7356,3.7356,0,-3.7356,3.7356,0,-3.7356,3.7356,9.07275,-3.7356,-3.7356,-0,3.23752,-3.7356,-0,3.23752,-3.7356,-0,3.23752,-3.7356,9.07275,-3.7356,-3.7356,9.07275,-3.7356,-3.7356,1.05497,3.23752,-3.7356,0,-3.7356,-3.7356,0,-3.7356,3.7356,-0,3.23752,3.7356,-0,3.23752,3.7356,1.05497,3.23752],
    "uvs":[[0.982966,0.287351,0.998446,0.287351,0.998446,0.567111,0.982966,0.567111,0.982965,0.425335,0.982965,0.718342,0.967485,0.718342,0.967485,0.425335,0.982965,0,0.982965,0.141778,0.967485,0.141778,0.967485,0,0.982965,0.283558,0.967485,0.283558,0.952005,0.718342,0.952005,0.425335,0.967485,0.425335,0.967485,0.718342,0.952005,0.283558,0.967485,0.283558,0.952005,0.141778,0.967485,0.141778,0.952005,0,0.967485,0,0.982965,0,0.998446,0,0.998446,0.27976,0.982966,0.27976,0,0.998102,0,0.718342,0.01548,0.718342,0.015481,0.998102,0.459745,0.718342,0.459745,0,0.461299,0,0.461299,0.718342,0.230649,0.718342,0.23065,0,0.015481,0.718342,0.030961,0.718342,0.030961,0.998102,0.015481,0.998102,0.032515,0.737246,0.032515,0.718342,0.034069,0.718342,0.034069,0.737246,0.691948,0,0.921044,0,0.921044,0.718342,0.691948,0.718342,0.998446,0.281658,0.982966,0.281658,0.015481,1,0,1,0.030961,0.737247,0.030961,0.718342,0.032515,0.737247,1,0,1,0.718342,0.998446,0.718342,0.998446,0,0,0.623456,0,0.530864,0.172084,0.530864,0.173251,0.530864,0.175586,0.530864,0.176753,0.530864,0.348837,0.530864,0.348837,0.623456,0.348837,0.71605,0.348837,0.808643,0.348837,1,0.176753,1,0.175586,1,0.173251,1,0.172084,1,0,1,0,0.808643,0,0.71605,0.836734,0,0.836734,1,0.785714,1,0.785714,0,0.928571,0,0.928571,1,0.877551,1,0.877551,0,0.989796,0,1,0,1,1,0.989796,1,0.989796,1,0.969388,1,0.969387,0,0.989796,0,0,0,0.602041,0,0.602041,1,0,1,0.969387,1,0.744898,0.016667,0.693877,0.016667,0.693877,0,0,0,0.785714,0.933333,0.785714,0.966667,0.785714,1,0.744898,1,0.642857,1,0.602041,1,0.602041,0.966667,0.642857,0.016667,0.602041,0.933333,0.693877,0.016667,0.693877,0,0.732558,0.530864,0.732558,0.901233,0.674419,0.901233,0.674419,0.530864,0.674419,0.469136,0.674419,0,0.674419,0.530864,1,0.530864,0.348837,0.530864,0,0.530864,0.348837,0,0.674419,0.901233,0.348837,0.901234,0.348837,0.530864,0.674419,0.530864,0.348837,0.061728,0.348837,0,0.674419,0,0.348837,0.530864,0.674419,0.530864]],
    "normals":[0,0.894406,0.447188,0,0,1,0,-0.707083,0.707083,1,0,-0,0.577349,0.577349,-0.577349,0.577349,-0.577349,-0.577349,-1,0,-0,-0.577349,0.577319,-0.577349,-0.577349,-0.577349,-0.577349,0,-0.554674,0.832026,0,0.554674,0.832026,0,-0.707083,-0.707083,0,0.707083,-0.707083,0.039094,0.997528,0.05826,0,1,-0,0,0.894406,-0.447188,0,0.707083,0.707083,0,-1,-0,0,0,-1,0.999969,0,-0]
}
